Virome - ERR2 group
…
dataset <- dataset <- read_csv("data/phage_counts.csv")

## Parsed with column specification:
## cols(
##   subject = col_double(),
##   arm = col_character(),
##   timepoint = col_double(),
##   query = col_character(),
##   tax_id = col_double(),
##   parent_tax_id = col_double()
## )

dataset

## # A tibble: 151,065 x 6
##    subject arm   timepoint query               tax_id parent_tax_id
##      <dbl> <chr>     <dbl> <chr>                <dbl>         <dbl>
##  1      10 P             0 SRR5580239.1195243   38018         12333
##  2      10 P             0 SRR5580237.5787515  754039        196896
##  3      10 P             0 SRR5580233.2454247 1401669        196894
##  4      10 P             0 SRR5580236.759656  1555202        196896
##  5      10 P             0 SRR5580238.2213536  571950         12333
##  6      10 P             0 SRR5580236.979355  1289598       1758253
##  7      10 P             0 SRR5580237.6405085 1084719        686598
##  8      10 P             0 SRR5580237.8850639   38018         12333
##  9      10 P             0 SRR5580233.2634354   38018         12333
## 10      10 P             0 SRR5580237.5364855  879630        329380
## #  with 151,055 more rows

filter(dataset, timepoint == "0")

## # A tibble: 49,246 x 6
##    subject arm   timepoint query               tax_id parent_tax_id
##      <dbl> <chr>     <dbl> <chr>                <dbl>         <dbl>
##  1      10 P             0 SRR5580239.1195243   38018         12333
##  2      10 P             0 SRR5580237.5787515  754039        196896
##  3      10 P             0 SRR5580233.2454247 1401669        196894
##  4      10 P             0 SRR5580236.759656  1555202        196896
##  5      10 P             0 SRR5580238.2213536  571950         12333
##  6      10 P             0 SRR5580236.979355  1289598       1758253
##  7      10 P             0 SRR5580237.6405085 1084719        686598
##  8      10 P             0 SRR5580237.8850639   38018         12333
##  9      10 P             0 SRR5580233.2634354   38018         12333
## 10      10 P             0 SRR5580237.5364855  879630        329380
## #  with 49,236 more rows

graph_1 <- dataset %>% 
    group_by(., tax_id) %>% 
    arrange(tax_id) %>% 
    count(tax_id)
graph_1

## # A tibble: 1,509 x 2
## # Groups:   tax_id [1,509]
##    tax_id     n
##     <dbl> <int>
##  1  10665    14
##  2  10677     3
##  3  10678   414
##  4  10679   126
##  5  10680    64
##  6  10682   229
##  7  10685    65
##  8  10686     2
##  9  10690     5
## 10  10701    21
## #  with 1,499 more rows
…
sub <- dataset %>% select(subject) %>% count(subject)
sub

## # A tibble: 36 x 2
##    subject     n
##      <dbl> <int>
##  1       2  3695
##  2       3  2181
##  3       4  4148
##  4       5  4646
##  5       6  5317
##  6       8  3274
##  7       9  3840
##  8      10  4546
##  9      11  8764
## 10      12  3630
## #  with 26 more rows

ravi <- dataset %>% select(subject, arm, timepoint) %>% filter(arm == "M") %>%   count(arm, subject, timepoint)
ravi

## # A tibble: 57 x 4
##    arm   subject timepoint     n
##    <chr>   <dbl>     <dbl> <int>
##  1 M           4         0  1501
##  2 M           4         2  1351
##  3 M           4         4  1296
##  4 M          11         0  2674
##  5 M          11         2  3183
##  6 M          11         4  2907
##  7 M          12         0  1179
##  8 M          12         2  1481
##  9 M          12         4   970
## 10 M          13         0   874
## #  with 47 more rows

placebo <- dataset %>% select(subject, arm, timepoint) %>% filter(arm == "P") %>%   count(arm, subject, timepoint)
placebo

## # A tibble: 51 x 4
##    arm   subject timepoint     n
##    <chr>   <dbl>     <dbl> <int>
##  1 P           2         0  1538
##  2 P           2         2  1283
##  3 P           2         4   874
##  4 P           3         0   763
##  5 P           3         2   782
##  6 P           3         4   636
##  7 P           5         0  1677
##  8 P           5         2  1307
##  9 P           5         4  1662
## 10 P           6         0  1287
## #  with 41 more rows
…
subOP <- dataset %>% 
    filter(timepoint == "0") %>% 
    filter( arm == "P") %>% 
    arrange(tax_id)
csubOP <- count(subOP, tax_id)
csubOP

## # A tibble: 985 x 2
##    tax_id     n
##     <dbl> <int>
##  1  10665     4
##  2  10678    51
##  3  10679    10
##  4  10680     5
##  5  10682    22
##  6  10685    10
##  7  10701     5
##  8  10702     1
##  9  10703     1
## 10  10704     1
## #  with 975 more rows

sub2P <- dataset %>% 
    filter(timepoint == "2") %>% 
    filter( arm == "P") %>% 
    arrange(tax_id)
csub2P <-count(sub2P, tax_id)
csub2P

## # A tibble: 1,023 x 2
##    tax_id     n
##     <dbl> <int>
##  1  10665     2
##  2  10678    63
##  3  10679    25
##  4  10680    21
##  5  10682    55
##  6  10685    11
##  7  10686     1
##  8  10690     1
##  9  10701     1
## 10  10702     3
## #  with 1,013 more rows

sub4P <- dataset %>% 
    filter(timepoint == "4") %>% 
    filter( arm == "P") %>% 
    arrange(tax_id)
csub4P <- count(sub4P, tax_id)
csub4P

## # A tibble: 973 x 2
##    tax_id     n
##     <dbl> <int>
##  1  10665     4
##  2  10677     1
##  3  10678    33
##  4  10679    26
##  5  10680    10
##  6  10682    30
##  7  10685     8
##  8  10701     5
##  9  10702     1
## 10  10703     3
## #  with 963 more rows
…
subOM <- dataset %>% 
    filter(timepoint == "0") %>% 
    filter( arm == "M") %>% 
    arrange(tax_id)
csubOM <- count(subOM, tax_id)
csubOM

## # A tibble: 1,027 x 2
##    tax_id     n
##     <dbl> <int>
##  1  10665     1
##  2  10677     1
##  3  10678    53
##  4  10679     6
##  5  10680     7
##  6  10682    11
##  7  10685    11
##  8  10686     1
##  9  10690     1
## 10  10701     2
## #  with 1,017 more rows

sub2M <- dataset %>% 
    filter(timepoint == "2") %>% 
    filter( arm == "M") %>% 
    arrange(tax_id)
csub2M <-count(sub2M, tax_id)
csub2M

## # A tibble: 1,092 x 2
##    tax_id     n
##     <dbl> <int>
##  1  10665     2
##  2  10678    69
##  3  10679    13
##  4  10680     3
##  5  10682    39
##  6  10685    17
##  7  10690     3
##  8  10701     6
##  9  10702     1
## 10  10703     2
## #  with 1,082 more rows

sub4M <- dataset %>% 
    filter(timepoint == "4") %>% 
    filter( arm == "M") %>% 
    arrange(tax_id)
csub4M <- count(sub4M, tax_id)
csub4M

## # A tibble: 1,048 x 2
##    tax_id     n
##     <dbl> <int>
##  1  10665     1
##  2  10677     1
##  3  10678   145
##  4  10679    46
##  5  10680    18
##  6  10682    72
##  7  10685     8
##  8  10701     2
##  9  10703     4
## 10  10704     5
## #  with 1,038 more rows
…
